{
  "extends": "../tslint.json",
  "rules": {
    "directive-selector": [
      true,
      "attribute",
      "app",
      "camelCase"
    ],
    "component-selector": [
      false,
      "element",
      "app",
      "kebab-case"
    ],
    "variable-name": {
      "options": [
        "ban-keywords",
        "check-format",
        "allow-leading-underscore",
        "allow-pascal-case"
      ]
    }
  }
}
